"name","descr","categoryname","active"
"Radicals","Radical for Christ","Ministries and Services","true"
"Givers","Gift of giving","Mens Bible Study","true"
"Helping Hands","Helping Hands","Mens Bible Study","true"
"Atlanta Small Group","Atlanta Southwest Small Group","K-6 Children Church","true"