<?xml version="1.0" encoding="utf-8"?>
<!-- Generator: Adobe Illustrator 15.1.0, SVG Export Plug-In . SVG Version: 6.00 Build 0)  -->
<!DOCTYPE svg PUBLIC "-//W3C//DTD SVG 1.1//EN" "http://www.w3.org/Graphics/SVG/1.1/DTD/svg11.dtd">
<svg version="1.1" id="Layer_3" xmlns="http://www.w3.org/2000/svg" x="0px" y="0px"
     width="600px" height="600px" viewBox="-250 -250 600 600" enable-background="new -250 -250 600 600"
     xml:space="preserve">
<path fill="#FFFFFF" d="M68.319-47.883l159.09,159.102c10.121,10.117,10.121,26.527,0,36.643c-10.116,10.115-26.528,10.115-36.645,0
	L50,7.091L-90.768,147.866c-10.121,10.116-26.526,10.116-36.642,0c-10.121-10.116-10.121-26.521,0-36.647L31.683-47.878
	c5.056-5.049,11.687-7.575,18.317-7.575S63.262-52.936,68.319-47.883z"/>
</svg>
